{
  "points": {},
  "regions": {
    "assessment_name": {
      "top_left": [
        309,
        22
      ],
      "bottom_right": [
        500,
        58
      ]
    },
    "diff_p": {
      "top_left": [
        254,
        171
      ],
      "bottom_right": [
        345,
        206
      ]
    },
    "pt_biserial": {
      "top_left": [
        254,
        212
      ],
      "bottom_right": [
        345,
        240
      ]
    }
  }
}